{
  "license": "cc-by",
  "specStatus": "base",
  "otherLinks": [
    {
      "key": "Senaste version",
      "data": [
        {
          "value": "https://lankadedata.se/spec/vard-och-omsorgsverksamheter",
          "href": "https://lankadedata.se/spec/vard-och-omsorgsverksamheter"
        }
      ]
    },
    {
      "key": "Denna version",
      "data": [
        {
          "value": "https://lankadedata.se/spec/vard-och-omsorgsverksamheter",
          "href": "https://lankadedata.se/spec/vard-och-omsorgsverksamheter",
        }
      ]
    },
    {
      "key": "Källkod till specifikation",
      "data": [
        {
          "value": "https://gitlab.com/sarskilt-viktiga-datamangder/vard-och-omsorgsverksamheter",
          "href": "https://gitlab.com/sarskilt-viktiga-datamangder/vard-och-omsorgsverksamheter"
        }
      ]
    },
    {
      "key": "Ändringslogg",
      "data": [
        {
          "value": "https://gitlab.com/sarskilt-viktiga-datamangder/vard-och-omsorgsverksamheter/CHANGELOG.md",
          "href": "https://gitlab.com/sarskilt-viktiga-datamangder/vard-och-omsorgsverksamheter/CHANGELOG.md"
        }
      ]
    }
  ],
  "title": "Specifikation för vård- och omsorgsverksamheter",
  "subtitle": "Information om vård- och omsorgsverksamheter",
  "lint": false,
  "publishDate": "2024-02-19",
  "logos": [
    {
      "src": "assets/nationell-dataverkstad.jpg",
      "alt": "Logga för Västra Götalandsregionen",
      "url": "https://www.vgregion.se/ov/dataverkstad/",
      "width": 235
    }
  ],
  "editors": [
    {
      "name": "Alex Akkila Forsberg",
      "url": "mailto:alex@metasolutions.se",
      "company": "Metasolutions AB",
      "companyURL": "https://entryscape.com/"
    }
    ],  
    "authors": [
    {
      "name": "Maria Söderlind",
      "url": "mailto:maria.soderlind@umea.se",
      "company": "Umeå Kommun",
      "companyURL": "https://umea.se"
    },
    {
      "name": "Tomas Monsén",
      "url": "mailto:tomas.monsen@toreboda.se",
      "company": "Töreboda Kommun",
      "companyURL": "https://toreboda.se"
    },
    {
      "name": "Fredrik Eriksson",
      "url": "mailto:fredrik.c.eriksson@vgregion.se",
      "company": "Västra Götalandsregionen",
      "companyURL": "https://vgregion.se"
    },
    {
      "name": "Filip Dijak",
      "url": "mailto:filip.dijak@knowit.se",
      "company": "Knowit",
      "companyURL": "https://knowit.se"
    },
    {
      "name": "Björn Hagström",
      "url": "mailto:bjorn@hagstrom.nu"
    },
    {
      "name": "Mattias Axell",
      "url": "mailto:mattias.axell@metasolutions.se",
      "company": "Metasolutions",
      "companyURL": "https://entryscape.com"
    },
    {
      "name": "Kim Lantto",
      "url": "mailto:kim.lantto@goteborg.se",
      "company": "Göteborgs Stad",
      "companyURL": "https://goteborg.se"
    }
  ],
  "shortName": "vardverksamheter",
  "format": "markdown"
}
